{
  "images" : [
    {
      "idiom" : "iphone",
      "filename" : "cross-out-mark@1x.png",
      "scale" : "1x"
    },
    {
      "idiom" : "iphone",
      "filename" : "cross-out-mark@2x.png",
      "scale" : "2x"
    },
    {
      "idiom" : "iphone",
      "filename" : "cross-out-mark@3x.png",
      "scale" : "3x"
    }
  ],
  "info" : {
    "version" : 1,
    "author" : "xcode"
  }
}