{
  "images" : [
    {
      "idiom" : "iphone",
      "filename" : "Rectangle.png",
      "scale" : "1x"
    },
    {
      "idiom" : "iphone",
      "filename" : "Rectangle@2x.png",
      "scale" : "2x"
    },
    {
      "idiom" : "iphone",
      "filename" : "Rectangle@3x.png",
      "scale" : "3x"
    }
  ],
  "info" : {
    "version" : 1,
    "author" : "xcode"
  }
}