{
  "images" : [
    {
      "idiom" : "iphone",
      "filename" : "13723847_1122792671114104_626798900773943859_o.png",
      "scale" : "1x"
    },
    {
      "idiom" : "iphone",
      "filename" : "13723847_1122792671114104_626798900773943859_o@2x.png",
      "scale" : "2x"
    },
    {
      "idiom" : "iphone",
      "filename" : "13723847_1122792671114104_626798900773943859_o@3x.png",
      "scale" : "3x"
    }
  ],
  "info" : {
    "version" : 1,
    "author" : "xcode"
  }
}